// Jest Snapshot v1, https://goo.gl/fbAQLP

exports[`Creates jsonld instance 1`] = `
Array [
  "compact",
  "expand",
  "flatten",
  "frame",
  "link",
  "canonize",
  "normalize",
  "fromRDF",
  "toRDF",
  "createNodeMap",
  "merge",
  "_documentLoader",
  "get",
  "processContext",
  "getContextValue",
  "documentLoaders",
  "useDocumentLoader",
  "registerRDFParser",
  "unregisterRDFParser",
  "url",
  "util",
  "IdentifierIssuer",
  "clone",
  "asArray",
  "buildHeaders",
  "parseLinkHeader",
  "validateTypeValue",
  "hasProperty",
  "hasValue",
  "addValue",
  "getValues",
  "removeProperty",
  "removeValue",
  "relabelBlankNodes",
  "compareValues",
  "compareShortestLeast",
  "promises",
  "RequestQueue",
  "JsonLdProcessor",
]
`;

exports[`Loader throws on failed request 1`] = `[Error: Fetch request for http://example.com failed (500: Computer says no).]`;
